{
  "project_info": {
    "project_number": "977559357673",
    "project_id": "firebase-ngetrip"
  },
  "client": [
    {
      "client_info": {
        "mobilesdk_app_id": "1:977559357673:android:04dcee369f210339",
        "android_client_info": {
          "package_name": "com.devplus3mahasiswa2alumni.ngetrip"
        }
      },
      "oauth_client": [
        {
          "client_id": "977559357673-r0b6ap41lg99h7u2riso9k45aqm9ic4i.apps.googleusercontent.com",
          "client_type": 1,
          "android_info": {
            "package_name": "com.devplus3mahasiswa2alumni.ngetrip",
            "certificate_hash": "F4CD8ECAE922FE084827136065E1C206ED3D1669"
          }
        },
        {
          "client_id": "977559357673-gp98a30kd1lub0eftvamjca5ejnqvf4q.apps.googleusercontent.com",
          "client_type": 3
        }
      ],
      "api_key": [
        {
          "current_key": "AIzaSyCnkxA9wrsJhvvWbZL6IDWTFNJSc3Uiqao"
        }
      ],
      "services": {
        "analytics_service": {
          "status": 1
        },
        "appinvite_service": {
          "status": 1,
          "other_platform_oauth_client": []
        },
        "ads_service": {
          "status": 1
        }
      }
    }
  ],
  "configuration_version": "1"
}